Assignment A02 - RajneetK-Fundamentals of Analytics
…
One table verb

Count observations by group

# select(goodreads,Title,`Average Rating`)

goodreads %>%
  select(Title,`Average Rating`) %>%
  count(`Average Rating`) %>%
  arrange(desc(n))

## # A tibble: 131 x 2
##    `Average Rating`     n
##               <dbl> <int>
##  1             4.08    24
##  2             3.98    23
##  3             3.93    21
##  4             3.99    19
##  5             3.94    17
##  6             4       17
##  7             3.89    16
##  8             3.92    16
##  9             4.02    15
## 10             4.07    15
## # ... with 121 more rows

Two table verbs

Given the results, we would sort the predictions with respect to recommend the highest rated books.

library(dplyr)
library(tidyverse)

goodreads %>%
  select(Title:Bookshelves)

## # A tibble: 777 x 16
##    Title       Author   `Author l-f`  `Additional Auth~ ISBN  ISBN13 `My Rating`
##    <chr>       <chr>    <chr>         <chr>             <chr> <chr>        <dbl>
##  1 Stardust    Neil Ga~ Gaiman, Neil  <NA>              0061~ 97800~           0
##  2 Howl’s Mov~ Diana W~ Jones, Diana~ <NA>              0064~ 97800~           0
##  3 The Two To~ J.R.R. ~ Tolkien, J.R~ Alan Lee          0008~ 97800~           0
##  4 Notes from~ Fyodor ~ Dostoyevsky,~ <NA>              <NA>  <NA>             4
##  5 Meet Me in~ Libby H~ Hubscher, Li~ <NA>              0593~ 97805~           0
##  6 The Sea in~ Jackson~ Musker, Jack~ <NA>              <NA>  <NA>             0
##  7 Guards! Gu~ Terry P~ Pratchett, T~ <NA>              1473~ 97814~           0
##  8 Going Post~ Terry P~ Pratchett, T~ <NA>              0857~ 97808~           0
##  9 Golem XIV   Stanisl~ Lem, Stanisl~ Jozef Marušiak    8088~ <NA>             0
## 10 The Booksh~ Jenny C~ Colgan, Jenny <NA>              0062~ 97800~           3
## # ... with 767 more rows, and 9 more variables: Average Rating <dbl>,
## #   Publisher <chr>, Binding <chr>, Number of Pages <dbl>,
## #   Year Published <dbl>, Original Publication Year <dbl>, Date Read <chr>,
## #   Date Added <chr>, Bookshelves <chr>

goodreads %>%
  select(starts_with("Bookshelves")) 

## # A tibble: 777 x 2
##    Bookshelves              `Bookshelves with positions`        
##    <chr>                    <chr>                               
##  1 to-read                  to-read (#189)                      
##  2 to-read                  to-read (#188)                      
##  3 owned, currently-reading owned (#36), currently-reading (#3) 
##  4 owned, reread            owned (#189), reread (#37)          
##  5 owned, currently-reading owned (#119), currently-reading (#2)
##  6 dnf                      dnf (#43)                           
##  7 to-read, tbr             to-read (#187), tbr (#28)           
##  8 to-read, tbr             to-read (#153), tbr (#27)           
##  9 to-read                  to-read (#186)                      
## 10 owned                    owned (#134)                        
## # ... with 767 more rows

library(dplyr)
library(tidyverse)

goodreads %>%
  right_join(goodreads)

## Joining, by = c("Book Id", "Title", "Author", "Author l-f", "Additional Authors", "ISBN", "ISBN13", "My Rating", "Average Rating", "Publisher", "Binding", "Number of Pages", "Year Published", "Original Publication Year", "Date Read", "Date Added", "Bookshelves", "Bookshelves with positions", "Exclusive Shelf", "My Review", "Spoiler", "Private Notes", "Read Count", "Recommended For", "Recommended By", "Owned Copies", "Original Purchase Date", "Original Purchase Location", "Condition", "Condition Description", "BCID")

## # A tibble: 777 x 31
##    `Book Id` Title Author `Author l-f` `Additional Aut~ ISBN  ISBN13 `My Rating`
##        <dbl> <chr> <chr>  <chr>        <chr>            <chr> <chr>        <dbl>
##  1     16793 Star~ Neil ~ Gaiman, Neil <NA>             0061~ 97800~           0
##  2      6294 Howl~ Diana~ Jones, Dian~ <NA>             0064~ 97800~           0
##  3  49392855 The ~ J.R.R~ Tolkien, J.~ Alan Lee         0008~ 97800~           0
##  4   6568440 Note~ Fyodo~ Dostoyevsky~ <NA>             <NA>  <NA>             4
##  5  54419239 Meet~ Libby~ Hubscher, L~ <NA>             0593~ 97805~           0
##  6  55583233 The ~ Jacks~ Musker, Jac~ <NA>             <NA>  <NA>             0
##  7  20493888 Guar~ Terry~ Pratchett, ~ <NA>             1473~ 97814~           0
##  8  34643771 Goin~ Terry~ Pratchett, ~ <NA>             0857~ 97808~           0
##  9   3577453 Gole~ Stani~ Lem, Stanis~ Jozef Marušiak   8088~ <NA>             0
## 10  28372019 The ~ Jenny~ Colgan, Jen~ <NA>             0062~ 97800~           3
## # ... with 767 more rows, and 23 more variables: Average Rating <dbl>,
## #   Publisher <chr>, Binding <chr>, Number of Pages <dbl>,
## #   Year Published <dbl>, Original Publication Year <dbl>, Date Read <chr>,
## #   Date Added <chr>, Bookshelves <chr>, Bookshelves with positions <chr>,
## #   Exclusive Shelf <chr>, My Review <lgl>, Spoiler <lgl>, Private Notes <lgl>,
## #   Read Count <dbl>, Recommended For <lgl>, Recommended By <lgl>,
## #   Owned Copies <dbl>, Original Purchase Date <lgl>,
## #   Original Purchase Location <lgl>, Condition <chr>,
## #   Condition Description <lgl>, BCID <lgl>
…
