A03 Assignment EDA1 · RajneetK-Fundamentals of Analytics
…
26 - 35

36 - 50

51 and over

    age_group <- legosales %>% 
    mutate(age_group = case_when( age <= 18 ~ "18 and under", 
                                  age >= 19 & age <= 25 ~ "19 - 25", 
                                  age >= 26 & age <= 35 ~ "26 - 35", 
                                  age >= 36 & age <= 50 ~ "36 - 50", 
                                  age >= 51 ~ "51 and over" ))
age_group

## # A tibble: 620 x 15
##    first_name last_name    age phone_number set_id number theme  subtheme   year
##    <chr>      <chr>      <dbl> <chr>         <dbl> <chr>  <chr>  <chr>     <dbl>
##  1 Kimberly   Beckstead     24 216-555-2549  24701 76062  DC Co~ Mighty M~  2018
##  2 Neel       Garvin        35 819-555-3189  25626 70595  Ninja~ Rise of ~  2018
##  3 Neel       Garvin        35 819-555-3189  24665 21031  Archi~ <NA>       2018
##  4 Chelsea    Bouchard      41 <NA>          24695 31048  Creat~ <NA>       2018
##  5 Chelsea    Bouchard      41 <NA>          25626 70595  Ninja~ Rise of ~  2018
##  6 Chelsea    Bouchard      41 <NA>          24721 10831  Duplo  <NA>       2018
##  7 Bryanna    Welsh         19 <NA>          24797 75138  Star ~ Episode V  2018
##  8 Bryanna    Welsh         19 <NA>          24701 76062  DC Co~ Mighty M~  2018
##  9 Caleb      Garcia-Wi~    37 907-555-9236  24730 41115  Frien~ <NA>       2018
## 10 Caleb      Garcia-Wi~    37 907-555-9236  25611 21127  Minec~ Minifig-~  2018
## # ... with 610 more rows, and 6 more variables: name <chr>, pieces <dbl>,
## #   us_price <dbl>, image_url <chr>, quantity <dbl>, age_group <chr>
…
