…
## [1] 119390

ncol(hotel_data)    # 32

## [1] 32

Exploring the number of countries invloved

hotel_data%>%
  group_by(country)%>%
  summarise(num=n())%>%
  arrange(desc(num))

## # A tibble: 178 x 2
##    country   num
##    <fct>   <int>
##  1 PRT     48590
##  2 GBR     12129
##  3 FRA     10415
##  4 ESP      8568
##  5 DEU      7287
##  6 ITA      3766
##  7 IRL      3375
##  8 BEL      2342
##  9 BRA      2224
## 10 NLD      2104
## # ... with 168 more rows
…
